OXGameFrame$2.class
OXGameFrame$5.class
OXGameFrame$8.class
OXGameFrame$7.class
OXGameFrame.class
OXGameFrame$9.class
OXGameFrame$10.class
OXGameFrame$3.class
OXGameFrame$4.class
OXGameFrame$1.class
OXGameFrame$6.class
